==98378== Callgrind, a call-graph generating cache profiler
==98378== Copyright (C) 2002-2017, and GNU GPL'd, by Josef Weidendorfer et al.
==98378== Using Valgrind-3.17.0.GIT-lbmacos and LibVEX; rerun with -h for copyright info
==98378== Command: /usr/local/ns/bin/tclsh8.6 ./library/lib/mkIndex.tcl -dir ./library
==98378== 
==98378== For interactive control, run 'callgrind_control -h'.
--98378-- UNKNOWN mach_msg unhandled MACH_SEND_TRAILER option
--98378-- UNKNOWN mach_msg unhandled MACH_SEND_TRAILER option (repeated 2 times)
UNKNOWN workq_ops option 1024
--98378-- UNKNOWN mach_msg unhandled MACH_SEND_TRAILER option (repeated 4 times)
--98378-- UNKNOWN mach_msg unhandled MACH_SEND_TRAILER option (repeated 8 times)
--98378-- WARNING: unhandled amd64-darwin syscall: unix:228
--98378-- You may be able to write your own handler.
--98378-- Read the file README_MISSING_SYSCALL_OR_IOCTL.
--98378-- Nevertheless we consider this a bug.  Please report
--98378-- it at http://valgrind.org/support/bug_reports.html.
==98378== 
==98378== Process terminating with default action of signal 11 (SIGSEGV)
==98378==  Access not within mapped region at address 0x20
==98378==    at 0x7FFF2056EEF4: ??? (in /dev/ttys000)
==98378==    by 0x7FFF20706479: ??? (in /dev/ttys000)
==98378==    by 0x7FFF20705492: ??? (in /dev/ttys000)
==98378==  If you believe this happened as a result of a stack
==98378==  overflow in your program's main thread (unlikely but
==98378==  possible), you can try to increase the size of the
==98378==  main thread stack using the --main-stacksize= flag.
==98378==  The main thread stack size used in this run was 67104768.
==98378== 
==98378== Events    : Ir
==98378== Collected : 11420246
==98378== 
==98378== I   refs:      11,420,246
==98759== Callgrind, a call-graph generating cache profiler
==98759== Copyright (C) 2002-2017, and GNU GPL'd, by Josef Weidendorfer et al.
==98759== Using Valgrind-3.17.0.GIT-lbmacos and LibVEX; rerun with -h for copyright info
==98759== Command: /usr/local/ns/bin/tclsh8.6 ./library/lib/mkIndex.tcl -dir ./library
==98759== 
==98759== For interactive control, run 'callgrind_control -h'.
--98759-- UNKNOWN mach_msg unhandled MACH_SEND_TRAILER option
--98759-- UNKNOWN mach_msg unhandled MACH_SEND_TRAILER option (repeated 2 times)
UNKNOWN workq_ops option 1024
--98759-- UNKNOWN mach_msg unhandled MACH_SEND_TRAILER option (repeated 4 times)
--98759-- UNKNOWN mach_msg unhandled MACH_SEND_TRAILER option (repeated 8 times)
--98759-- WARNING: unhandled amd64-darwin syscall: unix:228
--98759-- You may be able to write your own handler.
--98759-- Read the file README_MISSING_SYSCALL_OR_IOCTL.
--98759-- Nevertheless we consider this a bug.  Please report
--98759-- it at http://valgrind.org/support/bug_reports.html.
==98759== 
==98759== Process terminating with default action of signal 11 (SIGSEGV)
==98759==  Access not within mapped region at address 0x20
==98759==    at 0x7FFF2056EEF4: ??? (in /dev/ttys000)
==98759==    by 0x7FFF20706479: ??? (in /dev/ttys000)
==98759==    by 0x7FFF20705492: ??? (in /dev/ttys000)
==98759==  If you believe this happened as a result of a stack
==98759==  overflow in your program's main thread (unlikely but
==98759==  possible), you can try to increase the size of the
==98759==  main thread stack using the --main-stacksize= flag.
==98759==  The main thread stack size used in this run was 67104768.
==98759== 
==98759== Events    : Ir
==98759== Collected : 11421262
==98759== 
==98759== I   refs:      11,421,262
==69187== Callgrind, a call-graph generating cache profiler
==69187== Copyright (C) 2002-2017, and GNU GPL'd, by Josef Weidendorfer et al.
==69187== Using Valgrind-3.17.0.GIT-lbmacos and LibVEX; rerun with -h for copyright info
==69187== Command: /usr/local/ns/bin/tclsh8.6 ./library/lib/mkIndex.tcl -dir ./library
==69187== 
==69187== For interactive control, run 'callgrind_control -h'.
--69187-- UNKNOWN mach_msg unhandled MACH_SEND_TRAILER option
--69187-- UNKNOWN mach_msg unhandled MACH_SEND_TRAILER option (repeated 2 times)
UNKNOWN workq_ops option 1024
--69187-- UNKNOWN mach_msg unhandled MACH_SEND_TRAILER option (repeated 4 times)
--69187-- UNKNOWN mach_msg unhandled MACH_SEND_TRAILER option (repeated 8 times)
--69187-- WARNING: unhandled amd64-darwin syscall: unix:228
--69187-- You may be able to write your own handler.
--69187-- Read the file README_MISSING_SYSCALL_OR_IOCTL.
--69187-- Nevertheless we consider this a bug.  Please report
--69187-- it at http://valgrind.org/support/bug_reports.html.
==69187== 
==69187== Process terminating with default action of signal 11 (SIGSEGV)
==69187==  Access not within mapped region at address 0x20
==69187==    at 0x7FFF2056EEF4: ??? (in /dev/ttys000)
==69187==    by 0x7FFF20706479: ??? (in /dev/ttys000)
==69187==    by 0x7FFF20705492: ??? (in /dev/ttys000)
==69187==  If you believe this happened as a result of a stack
==69187==  overflow in your program's main thread (unlikely but
==69187==  possible), you can try to increase the size of the
==69187==  main thread stack using the --main-stacksize= flag.
==69187==  The main thread stack size used in this run was 67104768.
==69187== 
==69187== Events    : Ir
==69187== Collected : 11419433
==69187== 
==69187== I   refs:      11,419,433
